<svg class="" xmlns="http://www.w3.org/2000/svg" viewBox="-480 481 39 39">
  <circle fill="#fff" fill-opacity="0" cx="-460.5" cy="500.5" r="19"></circle>
	<path d="M-460.5,481c-10.8,0-19.5,8.8-19.5,19.5s8.8,19.5,19.5,19.5s19.5-8.8,19.5-19.5 S-449.7,481-460.5,481z M-460.5,519c-10.2,0-18.5-8.3-18.5-18.5s8.3-18.5,18.5-18.5s18.5,8.3,18.5,18.5S-450.3,519-460.5,519z"></path>
	<path d="M-466,511.3l17-11.1l-17-10.9V511.3z M-465,491.1l14.1,9.1l-14.1,9.3V491.1z"></path>
</svg>
